FIP/FIP.sim/sim_1/behav/xsim/simulate.log
Time resolution is 1 ps
===== Time = 15000 =====
t = 0, clr_all = 0, gen_array = 1
Systolic_Array_end = 0, Alpha_Beta_end = 0
Systolic_Array_count = 0000
Systolic_Array_result:
0 0 0 0 0 0 
0 0 0 0 0 0 
0 0 0 0 0 0 
0 0 0 0 0 0 
0 0 0 0 0 0 
0 0 0 0 0 0 
Alpha:
0 0 0 0 0 0 
Beta:
0 0 0 0 0 0 
Top-level Matrix A:
0 0 0 0 0 0 
0 0 0 0 0 0 
0 0 0 0 0 0 
0 0 0 0 0 0 
0 0 0 0 0 0 
0 0 0 0 0 0 
Top-level Matrix B:
0 0 0 0 0 0 
0 0 0 0 0 0 
0 0 0 0 0 0 
0 0 0 0 0 0 
0 0 0 0 0 0 
0 0 0 0 0 0 
apipe1:
0 0 0 0 0 0 0 
0 0 0 0 0 0 0 
0 0 0 0 0 0 0 
0 0 0 0 0 0 0 
0 0 0 0 0 0 0 
0 0 0 0 0 0 0 
apipe2:
0 0 0 0 0 0 0 
0 0 0 0 0 0 0 
0 0 0 0 0 0 0 
0 0 0 0 0 0 0 
0 0 0 0 0 0 0 
0 0 0 0 0 0 0 
cpipe_next:
0 0 0 0 0 0 
0 0 0 0 0 0 
0 0 0 0 0 0 
0 0 0 0 0 0 
0 0 0 0 0 0 
0 0 0 0 0 0 
c:
0 0 0 0 0 0 
0 0 0 0 0 0 
0 0 0 0 0 0 
0 0 0 0 0 0 
0 0 0 0 0 0 
0 0 0 0 0 0 
----------------------------------------------------
===== Time = 25000 =====
t = 0, clr_all = 0, gen_array = 0
Systolic_Array_end = 0, Alpha_Beta_end = 0
Systolic_Array_count = 0000
Systolic_Array_result:
0 0 0 0 0 0 
0 0 0 0 0 0 
0 0 0 0 0 0 
0 0 0 0 0 0 
0 0 0 0 0 0 
0 0 0 0 0 0 
Alpha:
0 0 0 0 0 0 
Beta:
0 0 0 0 0 0 
Top-level Matrix A:
0 1 3 2 1 3 
2 1 2 0 0 0 
0 0 0 1 2 0 
0 1 2 0 0 1 
2 0 1 2 1 3 
3 3 3 3 3 3 
Top-level Matrix B:
3 2 0 1 2 0 
0 1 2 0 0 0 
1 3 3 3 2 1 
3 3 3 3 2 0 
1 2 1 2 0 1 
3 2 1 3 3 3 
apipe1:
0 0 0 0 0 0 0 
0 0 0 0 0 0 0 
0 0 0 0 0 0 0 
0 0 0 0 0 0 0 
0 0 0 0 0 0 0 
0 0 0 0 0 0 0 
apipe2:
0 0 0 0 0 0 0 
0 0 0 0 0 0 0 
0 0 0 0 0 0 0 
0 0 0 0 0 0 0 
0 0 0 0 0 0 0 
0 0 0 0 0 0 0 
cpipe_next:
0 0 0 0 0 0 
0 0 0 0 0 0 
0 0 0 0 0 0 
0 0 0 0 0 0 
0 0 0 0 0 0 
0 0 0 0 0 0 
c:
0 0 0 0 0 0 
0 0 0 0 0 0 
0 0 0 0 0 0 
0 0 0 0 0 0 
0 0 0 0 0 0 
0 0 0 0 0 0 
----------------------------------------------------
===== Time = 35000 =====
t = 1, clr_all = 0, gen_array = 0
Systolic_Array_end = 0, Alpha_Beta_end = 0
Systolic_Array_count = 0000
Systolic_Array_result:
0 0 0 0 0 0 
0 0 0 0 0 0 
0 0 0 0 0 0 
0 0 0 0 0 0 
0 0 0 0 0 0 
0 0 0 0 0 0 
Alpha:
0 0 0 0 0 0 
Beta:
0 0 0 0 0 0 
Top-level Matrix A:
0 1 3 2 1 3 
2 1 2 0 0 0 
0 0 0 1 2 0 
0 1 2 0 0 1 
2 0 1 2 1 3 
3 3 3 3 3 3 
Top-level Matrix B:
3 2 0 1 2 0 
0 1 2 0 0 0 
1 3 3 3 2 1 
3 3 3 3 2 0 
1 2 1 2 0 1 
3 2 1 3 3 3 
apipe1:
0 0 0 0 0 0 0 
0 0 0 0 0 0 0 
0 0 0 0 0 0 0 
0 0 0 0 0 0 0 
0 0 0 0 0 0 0 
0 0 0 0 0 0 0 
apipe2:
1 0 0 0 0 0 0 
0 0 0 0 0 0 0 
0 0 0 0 0 0 0 
0 0 0 0 0 0 0 
0 0 0 0 0 0 0 
0 0 0 0 0 0 0 
cpipe_next:
0 0 0 0 0 0 
0 0 0 0 0 0 
0 0 0 0 0 0 
0 0 0 0 0 0 
0 0 0 0 0 0 
0 0 0 0 0 0 
c:
0 0 0 0 0 0 
0 0 0 0 0 0 
0 0 0 0 0 0 
0 0 0 0 0 0 
0 0 0 0 0 0 
0 0 0 0 0 0 
----------------------------------------------------
===== Time = 45000 =====
t = 2, clr_all = 0, gen_array = 0
Systolic_Array_end = 0, Alpha_Beta_end = 0
Systolic_Array_count = 0000
Systolic_Array_result:
0 0 0 0 0 0 
0 0 0 0 0 0 
0 0 0 0 0 0 
0 0 0 0 0 0 
0 0 0 0 0 0 
0 0 0 0 0 0 
Alpha:
0 0 0 0 0 0 
Beta:
0 0 0 0 0 0 
Top-level Matrix A:
0 1 3 2 1 3 
2 1 2 0 0 0 
0 0 0 1 2 0 
0 1 2 0 0 1 
2 0 1 2 1 3 
3 3 3 3 3 3 
Top-level Matrix B:
3 2 0 1 2 0 
0 1 2 0 0 0 
1 3 3 3 2 1 
3 3 3 3 2 0 
1 2 1 2 0 1 
3 2 1 3 3 3 
apipe1:
3 0 0 0 0 0 0 
2 0 0 0 0 0 0 
0 0 0 0 0 0 0 
0 0 0 0 0 0 0 
0 0 0 0 0 0 0 
0 0 0 0 0 0 0 
apipe2:
2 1 0 0 0 0 0 
1 0 0 0 0 0 0 
0 0 0 0 0 0 0 
0 0 0 0 0 0 0 
0 0 0 0 0 0 0 
0 0 0 0 0 0 0 
cpipe_next:
0 0 0 0 0 0 
0 0 0 0 0 0 
0 0 0 0 0 0 
0 0 0 0 0 0 
0 0 0 0 0 0 
0 0 0 0 0 0 
c:
0 0 0 0 0 0 
0 0 0 0 0 0 
0 0 0 0 0 0 
0 0 0 0 0 0 
0 0 0 0 0 0 
0 0 0 0 0 0 
----------------------------------------------------
===== Time = 55000 =====
t = 3, clr_all = 0, gen_array = 0
Systolic_Array_end = 0, Alpha_Beta_end = 0
Systolic_Array_count = 0000
Systolic_Array_result:
0 0 0 0 0 0 
0 0 0 0 0 0 
0 0 0 0 0 0 
0 0 0 0 0 0 
0 0 0 0 0 0 
0 0 0 0 0 0 
Alpha:
0 2 0 0 0 9 
Beta:
0 2 0 0 0 0 
Top-level Matrix A:
0 1 3 2 1 3 
2 1 2 0 0 0 
0 0 0 1 2 0 
0 1 2 0 0 1 
2 0 1 2 1 3 
3 3 3 3 3 3 
Top-level Matrix B:
3 2 0 1 2 0 
0 1 2 0 0 0 
1 3 3 3 2 1 
3 3 3 3 2 0 
1 2 1 2 0 1 
3 2 1 3 3 3 
apipe1:
1 3 0 0 0 0 0 
2 2 0 0 0 0 0 
0 0 0 0 0 0 0 
0 0 0 0 0 0 0 
0 0 0 0 0 0 0 
0 0 0 0 0 0 0 
apipe2:
3 2 1 0 0 0 0 
0 1 0 0 0 0 0 
0 0 0 0 0 0 0 
0 0 0 0 0 0 0 
0 0 0 0 0 0 0 
0 0 0 0 0 0 0 
cpipe_next:
0 0 0 0 0 0 
0 0 0 0 0 0 
0 0 0 0 0 0 
0 0 0 0 0 0 
0 0 0 0 0 0 
0 0 0 0 0 0 
c:
0 0 0 0 0 0 
0 0 0 0 0 0 
0 0 0 0 0 0 
0 0 0 0 0 0 
0 0 0 0 0 0 
0 0 0 0 0 0 
----------------------------------------------------
===== Time = 65000 =====
t = 4, clr_all = 0, gen_array = 0
Systolic_Array_end = 0, Alpha_Beta_end = 0
Systolic_Array_count = 0000
Systolic_Array_result:
0 0 0 0 0 0 
0 0 0 0 0 0 
0 0 0 0 0 0 
0 0 0 0 0 0 
0 0 0 0 0 0 
0 0 0 0 0 0 
Alpha:
6 2 0 0 2 18 
Beta:
3 11 9 9 4 0 
Top-level Matrix A:
0 1 3 2 1 3 
2 1 2 0 0 0 
0 0 0 1 2 0 
0 1 2 0 0 1 
2 0 1 2 1 3 
3 3 3 3 3 3 
Top-level Matrix B:
3 2 0 1 2 0 
0 1 2 0 0 0 
1 3 3 3 2 1 
3 3 3 3 2 0 
1 2 1 2 0 1 
3 2 1 3 3 3 
apipe1:
0 1 3 0 0 0 0 
0 2 2 0 0 0 0 
0 0 0 0 0 0 0 
0 0 0 0 0 0 0 
0 0 0 0 0 0 0 
0 0 0 0 0 0 0 
apipe2:
0 3 2 1 0 0 0 
0 0 1 0 0 0 0 
1 0 0 0 0 0 0 
1 0 0 0 0 0 0 
0 0 0 0 0 0 0 
0 0 0 0 0 0 0 
cpipe_next:
0 0 0 0 0 0 
0 0 0 0 0 0 
0 0 0 0 0 0 
0 0 0 0 0 0 
0 0 0 0 0 0 
0 0 0 0 0 0 
c:
0 0 0 0 0 0 
0 0 0 0 0 0 
0 0 0 0 0 0 
0 0 0 0 0 0 
0 0 0 0 0 0 
0 0 0 0 0 0 
----------------------------------------------------
===== Time = 75000 =====
t = 5, clr_all = 0, gen_array = 0
Systolic_Array_end = 0, Alpha_Beta_end = 1
Systolic_Array_count = 0000
Systolic_Array_result:
18 3 0 0 0 0 
8 0 0 0 0 0 
0 0 0 0 0 0 
0 0 0 0 0 0 
0 0 0 0 0 0 
0 0 0 0 0 0 
Alpha:
9 2 0 0 5 27 
Beta:
6 15 10 15 4 3 
Top-level Matrix A:
0 1 3 2 1 3 
2 1 2 0 0 0 
0 0 0 1 2 0 
0 1 2 0 0 1 
2 0 1 2 1 3 
3 3 3 3 3 3 
Top-level Matrix B:
3 2 0 1 2 0 
0 1 2 0 0 0 
1 3 3 3 2 1 
3 3 3 3 2 0 
1 2 1 2 0 1 
3 2 1 3 3 3 
apipe1:
0 0 1 3 0 0 0 
0 0 2 2 0 0 0 
2 0 0 0 0 0 0 
2 0 0 0 0 0 0 
2 0 0 0 0 0 0 
0 0 0 0 0 0 0 
apipe2:
0 0 3 2 1 0 0 
0 0 0 1 0 0 0 
0 1 0 0 0 0 0 
0 1 0 0 0 0 0 
0 0 0 0 0 0 0 
0 0 0 0 0 0 0 
cpipe_next:
18 3 0 0 0 0 
8 0 0 0 0 0 
0 0 0 0 0 0 
0 0 0 0 0 0 
0 0 0 0 0 0 
0 0 0 0 0 0 
c:
0 0 0 0 0 0 
0 0 0 0 0 0 
0 0 0 0 0 0 
0 0 0 0 0 0 
0 0 0 0 0 0 
0 0 0 0 0 0 
----------------------------------------------------
===== Time = 85000 =====
t = 6, clr_all = 0, gen_array = 0
Systolic_Array_end = 0, Alpha_Beta_end = 1
Systolic_Array_count = 0000
Systolic_Array_result:
34 33 2 0 0 0 
13 9 0 0 0 0 
0 0 0 0 0 0 
0 0 0 0 0 0 
0 0 0 0 0 0 
0 0 0 0 0 0 
Alpha:
9 2 0 0 5 27 
Beta:
6 15 10 15 4 3 
Top-level Matrix A:
0 1 3 2 1 3 
2 1 2 0 0 0 
0 0 0 1 2 0 
0 1 2 0 0 1 
2 0 1 2 1 3 
3 3 3 3 3 3 
Top-level Matrix B:
3 2 0 1 2 0 
0 1 2 0 0 0 
1 3 3 3 2 1 
3 3 3 3 2 0 
1 2 1 2 0 1 
3 2 1 3 3 3 
apipe1:
0 0 0 1 3 0 0 
0 0 0 2 2 0 0 
0 2 0 0 0 0 0 
0 2 0 0 0 0 0 
1 2 0 0 0 0 0 
3 0 0 0 0 0 0 
apipe2:
0 0 0 3 2 1 0 
0 0 0 0 1 0 0 
0 0 1 0 0 0 0 
1 0 1 0 0 0 0 
2 0 0 0 0 0 0 
3 0 0 0 0 0 0 
cpipe_next:
34 33 2 0 0 0 
13 9 0 0 0 0 
0 0 0 0 0 0 
0 0 0 0 0 0 
0 0 0 0 0 0 
0 0 0 0 0 0 
c:
0 0 0 0 0 0 
0 0 0 0 0 0 
0 0 0 0 0 0 
0 0 0 0 0 0 
0 0 0 0 0 0 
0 0 0 0 0 0 
----------------------------------------------------
===== Time = 95000 =====
t = 7, clr_all = 0, gen_array = 0
Systolic_Array_end = 0, Alpha_Beta_end = 1
Systolic_Array_count = 0000
Systolic_Array_result:
34 48 32 0 0 0 
16 24 4 0 0 0 
6 2 0 0 0 0 
0 0 0 0 0 0 
0 0 0 0 0 0 
0 0 0 0 0 0 
Alpha:
9 2 0 0 5 27 
Beta:
6 15 10 15 4 3 
Top-level Matrix A:
0 1 3 2 1 3 
2 1 2 0 0 0 
0 0 0 1 2 0 
0 1 2 0 0 1 
2 0 1 2 1 3 
3 3 3 3 3 3 
Top-level Matrix B:
3 2 0 1 2 0 
0 1 2 0 0 0 
1 3 3 3 2 1 
3 3 3 3 2 0 
1 2 1 2 0 1 
3 2 1 3 3 3 
apipe1:
0 0 0 0 1 3 0 
0 0 0 0 2 2 0 
0 0 2 0 0 0 0 
0 0 2 0 0 0 0 
1 1 2 0 0 0 0 
3 3 0 0 0 0 0 
apipe2:
0 0 0 0 3 2 1 
0 0 0 0 0 1 0 
0 0 0 1 0 0 0 
0 1 0 1 0 0 0 
3 2 0 0 0 0 0 
3 3 0 0 0 0 0 
cpipe_next:
34 48 32 0 0 0 
16 24 4 0 0 0 
6 2 0 0 0 0 
0 0 0 0 0 0 
0 0 0 0 0 0 
0 0 0 0 0 0 
c:
0 0 0 0 0 0 
0 0 0 0 0 0 
0 0 0 0 0 0 
0 0 0 0 0 0 
0 0 0 0 0 0 
0 0 0 0 0 0 
----------------------------------------------------
===== Time = 105000 =====
t = 8, clr_all = 0, gen_array = 0
Systolic_Array_end = 0, Alpha_Beta_end = 1
Systolic_Array_count = 0000
Systolic_Array_result:
34 48 40 30 0 0 
16 28 19 4 0 0 
11 14 0 0 0 0 
5 3 0 0 0 0 
6 0 0 0 0 0 
0 0 0 0 0 0 
Alpha:
9 2 0 0 5 27 
Beta:
6 15 10 15 4 3 
Top-level Matrix A:
0 1 3 2 1 3 
2 1 2 0 0 0 
0 0 0 1 2 0 
0 1 2 0 0 1 
2 0 1 2 1 3 
3 3 3 3 3 3 
Top-level Matrix B:
3 2 0 1 2 0 
0 1 2 0 0 0 
1 3 3 3 2 1 
3 3 3 3 2 0 
1 2 1 2 0 1 
3 2 1 3 3 3 
apipe1:
0 0 0 0 0 1 3 
0 0 0 0 0 2 2 
0 0 0 2 0 0 0 
0 0 0 2 0 0 0 
0 1 1 2 0 0 0 
3 3 3 0 0 0 0 
apipe2:
0 0 0 0 0 3 2 
0 0 0 0 0 0 1 
0 0 0 0 1 0 0 
0 0 1 0 1 0 0 
0 3 2 0 0 0 0 
3 3 3 0 0 0 0 
cpipe_next:
34 48 40 30 0 0 
16 28 19 4 0 0 
11 14 0 0 0 0 
5 3 0 0 0 0 
6 0 0 0 0 0 
0 0 0 0 0 0 
c:
0 0 0 0 0 0 
0 0 0 0 0 0 
0 0 0 0 0 0 
0 0 0 0 0 0 
0 0 0 0 0 0 
0 0 0 0 0 0 
----------------------------------------------------
===== Time = 115000 =====
t = 9, clr_all = 0, gen_array = 0
Systolic_Array_end = 0, Alpha_Beta_end = 1
Systolic_Array_count = 0000
Systolic_Array_result:
34 48 40 50 20 0 
16 28 20 19 6 0 
11 22 12 0 0 0 
11 18 2 0 0 0 
18 6 0 0 0 0 
18 0 0 0 0 0 
Alpha:
9 2 0 0 5 27 
Beta:
6 15 10 15 4 3 
Top-level Matrix A:
0 1 3 2 1 3 
2 1 2 0 0 0 
0 0 0 1 2 0 
0 1 2 0 0 1 
2 0 1 2 1 3 
3 3 3 3 3 3 
Top-level Matrix B:
3 2 0 1 2 0 
0 1 2 0 0 0 
1 3 3 3 2 1 
3 3 3 3 2 0 
1 2 1 2 0 1 
3 2 1 3 3 3 
apipe1:
0 0 0 0 0 0 1 
0 0 0 0 0 0 2 
0 0 0 0 2 0 0 
0 0 0 0 2 0 0 
0 0 1 1 2 0 0 
0 3 3 3 0 0 0 
apipe2:
0 0 0 0 0 0 3 
0 0 0 0 0 0 0 
0 0 0 0 0 1 0 
0 0 0 1 0 1 0 
0 0 3 2 0 0 0 
0 3 3 3 0 0 0 
cpipe_next:
34 48 40 50 20 0 
16 28 20 19 6 0 
11 22 12 0 0 0 
11 18 2 0 0 0 
18 6 0 0 0 0 
18 0 0 0 0 0 
c:
0 0 0 0 0 0 
0 0 0 0 0 0 
0 0 0 0 0 0 
0 0 0 0 0 0 
0 0 0 0 0 0 
0 0 0 0 0 0 
----------------------------------------------------
===== Time = 125000 =====
t = 10, clr_all = 0, gen_array = 0
Systolic_Array_end = 0, Alpha_Beta_end = 1
Systolic_Array_count = 0000
Systolic_Array_result:
34 48 40 50 32 9 
16 28 20 25 14 2 
11 22 15 12 0 0 
11 24 17 0 0 0 
34 26 0 0 0 0 
42 20 0 0 0 0 
Alpha:
9 2 0 0 5 27 
Beta:
6 15 10 15 4 3 
Top-level Matrix A:
0 1 3 2 1 3 
2 1 2 0 0 0 
0 0 0 1 2 0 
0 1 2 0 0 1 
2 0 1 2 1 3 
3 3 3 3 3 3 
Top-level Matrix B:
3 2 0 1 2 0 
0 1 2 0 0 0 
1 3 3 3 2 1 
3 3 3 3 2 0 
1 2 1 2 0 1 
3 2 1 3 3 3 
apipe1:
0 0 0 0 0 0 0 
0 0 0 0 0 0 0 
0 0 0 0 0 2 0 
0 0 0 0 0 2 0 
0 0 0 1 1 2 0 
0 0 3 3 3 0 0 
apipe2:
0 0 0 0 0 0 0 
0 0 0 0 0 0 0 
0 0 0 0 0 0 1 
0 0 0 0 1 0 1 
0 0 0 3 2 0 0 
0 0 3 3 3 0 0 
cpipe_next:
34 48 40 50 32 9 
16 28 20 25 14 2 
11 22 15 12 0 0 
11 24 17 0 0 0 
34 26 0 0 0 0 
42 20 0 0 0 0 
c:
0 0 0 0 0 0 
0 0 0 0 0 0 
0 0 0 0 0 0 
0 0 0 0 0 0 
0 0 0 0 0 0 
0 0 0 0 0 0 
----------------------------------------------------
===== Time = 135000 =====
t = 11, clr_all = 0, gen_array = 0
Systolic_Array_end = 0, Alpha_Beta_end = 1
Systolic_Array_count = 0001
Systolic_Array_result:
34 48 40 50 32 25 
16 28 20 25 14 4 
11 22 15 22 6 0 
11 24 19 15 0 0 
34 41 20 2 0 0 
66 56 15 0 0 0 
Alpha:
9 2 0 0 5 27 
Beta:
6 15 10 15 4 3 
Top-level Matrix A:
0 1 3 2 1 3 
2 1 2 0 0 0 
0 0 0 1 2 0 
0 1 2 0 0 1 
2 0 1 2 1 3 
3 3 3 3 3 3 
Top-level Matrix B:
3 2 0 1 2 0 
0 1 2 0 0 0 
1 3 3 3 2 1 
3 3 3 3 2 0 
1 2 1 2 0 1 
3 2 1 3 3 3 
apipe1:
0 0 0 0 0 0 0 
0 0 0 0 0 0 0 
0 0 0 0 0 0 2 
0 0 0 0 0 0 2 
0 0 0 0 1 1 2 
0 0 0 3 3 3 0 
apipe2:
0 0 0 0 0 0 0 
0 0 0 0 0 0 0 
0 0 0 0 0 0 0 
0 0 0 0 0 1 0 
0 0 0 0 3 2 0 
0 0 0 3 3 3 0 
cpipe_next:
34 48 40 50 32 25 
16 28 20 25 14 4 
11 22 15 22 6 0 
11 24 19 15 0 0 
34 41 20 2 0 0 
66 56 15 0 0 0 
c:
0 0 0 0 0 0 
0 0 0 0 0 0 
0 0 0 0 0 0 
0 0 0 0 0 0 
0 0 0 0 0 0 
0 0 0 0 0 0 
----------------------------------------------------
===== Time = 145000 =====
t = 12, clr_all = 0, gen_array = 1
Systolic_Array_end = 0, Alpha_Beta_end = 1
Systolic_Array_count = 0010
Systolic_Array_result:
34 48 40 50 32 25 
16 28 20 25 14 7 
11 22 15 22 6 0 
11 24 19 24 8 0 
34 41 28 22 4 0 
66 81 51 12 0 0 
Alpha:
9 2 0 0 5 27 
Beta:
6 15 10 15 4 3 
Top-level Matrix A:
0 1 3 2 1 3 
2 1 2 0 0 0 
0 0 0 1 2 0 
0 1 2 0 0 1 
2 0 1 2 1 3 
3 3 3 3 3 3 
Top-level Matrix B:
3 2 0 1 2 0 
0 1 2 0 0 0 
1 3 3 3 2 1 
3 3 3 3 2 0 
1 2 1 2 0 1 
3 2 1 3 3 3 
apipe1:
0 0 0 0 0 0 0 
0 0 0 0 0 0 0 
0 0 0 0 0 0 0 
0 0 0 0 0 0 0 
0 0 0 0 0 1 1 
0 0 0 0 3 3 3 
apipe2:
0 0 0 0 0 0 0 
0 0 0 0 0 0 0 
0 0 0 0 0 0 0 
0 0 0 0 0 0 1 
0 0 0 0 0 3 2 
0 0 0 0 3 3 3 
cpipe_next:
34 48 40 50 32 25 
16 28 20 25 14 7 
11 22 15 22 6 0 
11 24 19 24 8 0 
34 41 28 22 4 0 
66 81 51 12 0 0 
c:
0 0 0 0 0 0 
0 0 0 0 0 0 
0 0 0 0 0 0 
0 0 0 0 0 0 
0 0 0 0 0 0 
0 0 0 0 0 0 
----------------------------------------------------
===== Time = 155000 =====
t = 12, clr_all = 0, gen_array = 0
Systolic_Array_end = 0, Alpha_Beta_end = 1
Systolic_Array_count = 0011
Systolic_Array_result:
34 48 40 50 32 25 
16 28 20 25 14 7 
11 22 15 22 6 5 
11 24 19 24 11 2 
34 41 28 42 16 0 
66 81 67 48 15 0 
Alpha:
9 2 0 0 5 27 
Beta:
6 15 10 15 4 3 
Top-level Matrix A:
3 3 3 3 3 3 
2 1 2 1 2 1 
2 0 0 0 0 1 
2 0 1 2 0 0 
1 2 0 1 3 2 
1 2 0 0 1 3 
Top-level Matrix B:
3 3 2 1 2 1 
3 2 0 1 2 0 
1 2 0 0 1 3 
3 3 2 1 2 0 
0 0 1 3 2 0 
1 2 0 0 0 0 
apipe1:
0 0 0 0 0 0 0 
0 0 0 0 0 0 0 
0 0 0 0 0 0 0 
0 0 0 0 0 0 0 
0 0 0 0 0 0 1 
0 0 0 0 0 3 3 
apipe2:
0 0 0 0 0 0 0 
0 0 0 0 0 0 0 
0 0 0 0 0 0 0 
0 0 0 0 0 0 0 
0 0 0 0 0 0 3 
0 0 0 0 0 3 3 
cpipe_next:
34 48 40 50 32 25 
16 28 20 25 14 7 
11 22 15 22 6 5 
11 24 19 24 11 2 
34 41 28 42 16 0 
66 81 67 48 15 0 
c:
0 0 0 0 0 0 
0 0 0 0 0 0 
0 0 0 0 0 0 
0 0 0 0 0 0 
0 0 0 0 0 0 
0 0 0 0 0 0 
----------------------------------------------------
===== Time = 165000 =====
t = 0, clr_all = 0, gen_array = 0
Systolic_Array_end = 0, Alpha_Beta_end = 1
Systolic_Array_count = 0100
Systolic_Array_result:
34 48 40 50 32 25 
16 28 20 25 14 7 
11 22 15 22 6 5 
11 24 19 24 11 8 
34 41 28 42 28 3 
66 81 67 78 40 9 
Alpha:
9 2 0 0 5 27 
Beta:
6 15 10 15 4 3 
Top-level Matrix A:
3 3 3 3 3 3 
2 1 2 1 2 1 
2 0 0 0 0 1 
2 0 1 2 0 0 
1 2 0 1 3 2 
1 2 0 0 1 3 
Top-level Matrix B:
3 3 2 1 2 1 
3 2 0 1 2 0 
1 2 0 0 1 3 
3 3 2 1 2 0 
0 0 1 3 2 0 
1 2 0 0 0 0 
apipe1:
0 0 0 0 0 0 0 
0 0 0 0 0 0 0 
0 0 0 0 0 0 0 
0 0 0 0 0 0 0 
0 0 0 0 0 0 0 
0 0 0 0 0 0 3 
apipe2:
0 0 0 0 0 0 0 
0 0 0 0 0 0 0 
0 0 0 0 0 0 0 
0 0 0 0 0 0 0 
0 0 0 0 0 0 0 
0 0 0 0 0 0 3 
cpipe_next:
34 48 40 50 32 25 
16 28 20 25 14 7 
11 22 15 22 6 5 
11 24 19 24 11 8 
34 41 28 42 28 3 
66 81 67 78 40 9 
c:
0 0 0 0 0 0 
0 0 0 0 0 0 
0 0 0 0 0 0 
0 0 0 0 0 0 
0 0 0 0 0 0 
0 0 0 0 0 0 
----------------------------------------------------
===== Time = 175000 =====
t = 1, clr_all = 0, gen_array = 0
Systolic_Array_end = 0, Alpha_Beta_end = 1
Systolic_Array_count = 0101
Systolic_Array_result:
34 48 40 50 32 25 
16 28 20 25 14 7 
11 22 15 22 6 5 
11 24 19 24 11 8 
34 41 28 42 28 19 
66 81 67 78 58 21 
Alpha:
9 2 0 0 5 27 
Beta:
6 15 10 15 4 3 
Top-level Matrix A:
3 3 3 3 3 3 
2 1 2 1 2 1 
2 0 0 0 0 1 
2 0 1 2 0 0 
1 2 0 1 3 2 
1 2 0 0 1 3 
Top-level Matrix B:
3 3 2 1 2 1 
3 2 0 1 2 0 
1 2 0 0 1 3 
3 3 2 1 2 0 
0 0 1 3 2 0 
1 2 0 0 0 0 
apipe1:
0 0 0 0 0 0 0 
0 0 0 0 0 0 0 
0 0 0 0 0 0 0 
0 0 0 0 0 0 0 
0 0 0 0 0 0 0 
0 0 0 0 0 0 0 
apipe2:
0 0 0 0 0 0 0 
0 0 0 0 0 0 0 
0 0 0 0 0 0 0 
0 0 0 0 0 0 0 
0 0 0 0 0 0 0 
0 0 0 0 0 0 0 
cpipe_next:
34 48 40 50 32 25 
16 28 20 25 14 7 
11 22 15 22 6 5 
11 24 19 24 11 8 
34 41 28 42 28 19 
66 81 67 78 58 21 
c:
0 0 0 0 0 0 
0 0 0 0 0 0 
0 0 0 0 0 0 
0 0 0 0 0 0 
0 0 0 0 0 0 
0 0 0 0 0 0 
----------------------------------------------------
===== Time = 185000 =====
t = 2, clr_all = 0, gen_array = 0
Systolic_Array_end = 0, Alpha_Beta_end = 1
Systolic_Array_count = 0110
Systolic_Array_result:
34 48 40 50 32 25 
16 28 20 25 14 7 
11 22 15 22 6 5 
11 24 19 24 11 8 
34 41 28 42 28 19 
66 81 67 78 58 45 
Alpha:
9 2 0 0 5 27 
Beta:
6 15 10 15 4 3 
Top-level Matrix A:
3 3 3 3 3 3 
2 1 2 1 2 1 
2 0 0 0 0 1 
2 0 1 2 0 0 
1 2 0 1 3 2 
1 2 0 0 1 3 
Top-level Matrix B:
3 3 2 1 2 1 
3 2 0 1 2 0 
1 2 0 0 1 3 
3 3 2 1 2 0 
0 0 1 3 2 0 
1 2 0 0 0 0 
apipe1:
3 0 0 0 0 0 0 
0 0 0 0 0 0 0 
0 0 0 0 0 0 0 
0 0 0 0 0 0 0 
0 0 0 0 0 0 0 
0 0 0 0 0 0 0 
apipe2:
3 0 0 0 0 0 0 
0 0 0 0 0 0 0 
0 0 0 0 0 0 0 
0 0 0 0 0 0 0 
0 0 0 0 0 0 0 
0 0 0 0 0 0 0 
cpipe_next:
34 48 40 50 32 25 
16 28 20 25 14 7 
11 22 15 22 6 5 
11 24 19 24 11 8 
34 41 28 42 28 19 
66 81 67 78 58 45 
c:
0 0 0 0 0 0 
0 0 0 0 0 0 
0 0 0 0 0 0 
0 0 0 0 0 0 
0 0 0 0 0 0 
0 0 0 0 0 0 
----------------------------------------------------
===== Time = 195000 =====
t = 3, clr_all = 0, gen_array = 0
Systolic_Array_end = 1, Alpha_Beta_end = 1
Systolic_Array_count = 0111
Systolic_Array_result:
34 48 40 50 32 25 
16 28 20 25 14 7 
11 22 15 22 6 5 
11 24 19 24 11 8 
34 41 28 42 28 19 
66 81 67 78 58 45 
Alpha:
9 2 0 0 5 27 
Beta:
6 15 10 15 4 3 
Top-level Matrix A:
3 3 3 3 3 3 
2 1 2 1 2 1 
2 0 0 0 0 1 
2 0 1 2 0 0 
1 2 0 1 3 2 
1 2 0 0 1 3 
Top-level Matrix B:
3 3 2 1 2 1 
3 2 0 1 2 0 
1 2 0 0 1 3 
3 3 2 1 2 0 
0 0 1 3 2 0 
1 2 0 0 0 0 
apipe1:
3 3 0 0 0 0 0 
2 0 0 0 0 0 0 
0 0 0 0 0 0 0 
0 0 0 0 0 0 0 
0 0 0 0 0 0 0 
0 0 0 0 0 0 0 
apipe2:
3 3 0 0 0 0 0 
1 0 0 0 0 0 0 
0 0 0 0 0 0 0 
0 0 0 0 0 0 0 
0 0 0 0 0 0 0 
0 0 0 0 0 0 0 
cpipe_next:
34 48 40 50 32 25 
16 28 20 25 14 7 
11 22 15 22 6 5 
11 24 19 24 11 8 
34 41 28 42 28 19 
66 81 67 78 58 45 
c:
0 0 0 0 0 0 
0 0 0 0 0 0 
0 0 0 0 0 0 
0 0 0 0 0 0 
0 0 0 0 0 0 
0 0 0 0 0 0 
----------------------------------------------------
===== Time = 205000 =====
t = 4, clr_all = 1, gen_array = 0
Systolic_Array_end = 0, Alpha_Beta_end = 1
Systolic_Array_count = 0000
Systolic_Array_result:
0 0 0 0 0 0 
0 0 0 0 0 0 
0 0 0 0 0 0 
0 0 0 0 0 0 
0 0 0 0 0 0 
0 0 0 0 0 0 
Alpha:
9 2 0 0 5 27 
Beta:
6 15 10 15 4 3 
Top-level Matrix A:
3 3 3 3 3 3 
2 1 2 1 2 1 
2 0 0 0 0 1 
2 0 1 2 0 0 
1 2 0 1 3 2 
1 2 0 0 1 3 
Top-level Matrix B:
3 3 2 1 2 1 
3 2 0 1 2 0 
1 2 0 0 1 3 
3 3 2 1 2 0 
0 0 1 3 2 0 
1 2 0 0 0 0 
apipe1:
3 3 0 0 0 0 0 
2 0 0 0 0 0 0 
2 0 0 0 0 0 0 
0 0 0 0 0 0 0 
0 0 0 0 0 0 0 
0 0 0 0 0 0 0 
apipe2:
3 3 0 0 0 0 0 
1 0 0 0 0 0 0 
0 0 0 0 0 0 0 
0 0 0 0 0 0 0 
0 0 0 0 0 0 0 
0 0 0 0 0 0 0 
cpipe_next:
0 0 0 0 0 0 
0 0 0 0 0 0 
0 0 0 0 0 0 
0 0 0 0 0 0 
0 0 0 0 0 0 
0 0 0 0 0 0 
c:
19 24 21 26 19 13 
8 11 8 8 8 2 
5 7 5 7 2 2 
5 9 9 9 7 5 
23 21 13 22 19 11 
1 7 30 4 27 15 
----------------------------------------------------
