Baseline/Baseline.sim/sim_1/behav/xsim/Base_top_tb.vcd
$date
   Tue Mar 18 01:47:10 2025
$end
$version
  2022.2
$end
$timescale
  1ps
$end
$scope module Base_top_tb $end
$var reg 1 ! clk_p $end
$var reg 1 " clk_n $end
$var reg 1 # rst $end
$var wire 1 $ gen_array $end
$var wire 1 % start_cal $end
$var wire 1 & done_cal $end
$scope module uut $end
$var wire 1 ' clk_p $end
$var wire 1 ( clk_n $end
$var wire 1 ) rst $end
$var wire 1 * clk $end
$var reg 1 + start_cal $end
$var reg 1 , gen_array $end
$var reg 1 - done_cal $end
$scope module randomGen $end
$var wire 1 * clk $end
$var wire 1 . gen_array $end
$var wire 1 ) rst $end
$var wire 1 / done_cal $end
$var reg 1 + start_cal $end
$var reg 8 0 seed_reg [7:0] $end
$scope begin Block34_4 $end
$var reg 32 1 i [31:0] $end
$scope begin Block35_5 $end
$var reg 32 2 j [31:0] $end
$upscope $end
$upscope $end
$scope begin Block39_6 $end
$var reg 32 3 i [31:0] $end
$scope begin Block40_7 $end
$var reg 32 4 j [31:0] $end
$upscope $end
$upscope $end
$scope begin Block46_8 $end
$var reg 8 5 seed_local [7:0] $end
$scope begin Block51_9 $end
$var reg 32 6 i [31:0] $end
$scope begin Block52_10 $end
$var reg 32 7 j [31:0] $end
$upscope $end
$upscope $end
$scope begin Block58_11 $end
$var reg 32 8 i [31:0] $end
$scope begin Block59_12 $end
$var reg 32 9 j [31:0] $end
$upscope $end
$upscope $end
$upscope $end
$scope function lfsr_next $end
$var reg 8 : lfsr_next [7:0] $end
$var reg 8 ; l [7:0] $end
$var reg 1 < feedback $end
$upscope $end
$upscope $end
$scope module systolicArray $end
$var wire 1 * clk $end
$var wire 1 ) rst $end
$var wire 1 = start_cal $end
$var reg 1 - done_cal $end
$var reg 8 > t [7:0] $end
$var reg 1 ? done_cal_flag $end
$scope begin Block43_15 $end
$var reg 32 @ i [31:0] $end
$scope begin Block44_16 $end
$var reg 32 A j [31:0] $end
$upscope $end
$upscope $end
$scope begin Block46_17 $end
$var reg 32 B i [31:0] $end
$scope begin Block47_18 $end
$var reg 32 C j [31:0] $end
$upscope $end
$upscope $end
$scope begin Block49_19 $end
$var reg 32 D i [31:0] $end
$scope begin Block50_20 $end
$var reg 32 E j [31:0] $end
$upscope $end
$upscope $end
$scope begin Block55_21 $end
$var reg 32 F i [31:0] $end
$upscope $end
$scope begin Block61_22 $end
$var reg 32 G i [31:0] $end
$upscope $end
$scope begin Block72_24 $end
$var reg 32 H i [31:0] $end
$scope begin Block73_25 $end
$var reg 32 I j [31:0] $end
$upscope $end
$upscope $end
$scope module genblk1[0].genblk1[0].pe_inst $end
$var wire 1 * clk $end
$var wire 1 J rst $end
$var wire 2 K A_in [1:0] $end
$var wire 2 L B_in [1:0] $end
$var wire 5 M C_in [4:0] $end
$var wire 1 N done_cal_flag $end
$var reg 2 O A_out [37:36] $end
$var reg 2 P B_out [31:30] $end
$var reg 5 Q C_out [79:75] $end
$upscope $end
$scope module genblk1[0].genblk1[1].pe_inst $end
$var wire 1 * clk $end
$var wire 1 R rst $end
$var wire 2 S A_in [1:0] $end
$var wire 2 T B_in [1:0] $end
$var wire 5 U C_in [4:0] $end
$var wire 1 V done_cal_flag $end
$var reg 2 W A_out [35:34] $end
$var reg 2 X B_out [29:28] $end
$var reg 5 Y C_out [74:70] $end
$upscope $end
$scope module genblk1[0].genblk1[2].pe_inst $end
$var wire 1 * clk $end
$var wire 1 Z rst $end
$var wire 2 [ A_in [1:0] $end
$var wire 2 \ B_in [1:0] $end
$var wire 5 ] C_in [4:0] $end
$var wire 1 ^ done_cal_flag $end
$var reg 2 _ A_out [33:32] $end
$var reg 2 ` B_out [27:26] $end
$var reg 5 a C_out [69:65] $end
$upscope $end
$scope module genblk1[0].genblk1[3].pe_inst $end
$var wire 1 * clk $end
$var wire 1 b rst $end
$var wire 2 c A_in [1:0] $end
$var wire 2 d B_in [1:0] $end
$var wire 5 e C_in [4:0] $end
$var wire 1 f done_cal_flag $end
$var reg 2 g A_out [31:30] $end
$var reg 2 h B_out [25:24] $end
$var reg 5 i C_out [64:60] $end
$upscope $end
$scope module genblk1[1].genblk1[0].pe_inst $end
$var wire 1 * clk $end
$var wire 1 j rst $end
$var wire 2 k A_in [1:0] $end
$var wire 2 l B_in [1:0] $end
$var wire 5 m C_in [4:0] $end
$var wire 1 n done_cal_flag $end
$var reg 2 o A_out [27:26] $end
$var reg 2 p B_out [23:22] $end
$var reg 5 q C_out [59:55] $end
$upscope $end
$scope module genblk1[1].genblk1[1].pe_inst $end
$var wire 1 * clk $end
$var wire 1 r rst $end
$var wire 2 s A_in [1:0] $end
$var wire 2 t B_in [1:0] $end
$var wire 5 u C_in [4:0] $end
$var wire 1 v done_cal_flag $end
$var reg 2 w A_out [25:24] $end
$var reg 2 x B_out [21:20] $end
$var reg 5 y C_out [54:50] $end
$upscope $end
$scope module genblk1[1].genblk1[2].pe_inst $end
$var wire 1 * clk $end
$var wire 1 z rst $end
$var wire 2 { A_in [1:0] $end
$var wire 2 | B_in [1:0] $end
$var wire 5 } C_in [4:0] $end
$var wire 1 ~ done_cal_flag $end
$var reg 2 !! A_out [23:22] $end
$var reg 2 "! B_out [19:18] $end
$var reg 5 #! C_out [49:45] $end
$upscope $end
$scope module genblk1[1].genblk1[3].pe_inst $end
$var wire 1 * clk $end
$var wire 1 $! rst $end
$var wire 2 %! A_in [1:0] $end
$var wire 2 &! B_in [1:0] $end
$var wire 5 '! C_in [4:0] $end
$var wire 1 (! done_cal_flag $end
$var reg 2 )! A_out [21:20] $end
$var reg 2 *! B_out [17:16] $end
$var reg 5 +! C_out [44:40] $end
$upscope $end
$scope module genblk1[2].genblk1[0].pe_inst $end
$var wire 1 * clk $end
$var wire 1 ,! rst $end
$var wire 2 -! A_in [1:0] $end
$var wire 2 .! B_in [1:0] $end
$var wire 5 /! C_in [4:0] $end
$var wire 1 0! done_cal_flag $end
$var reg 2 1! A_out [17:16] $end
$var reg 2 2! B_out [15:14] $end
$var reg 5 3! C_out [39:35] $end
$upscope $end
$scope module genblk1[2].genblk1[1].pe_inst $end
$var wire 1 * clk $end
$var wire 1 4! rst $end
$var wire 2 5! A_in [1:0] $end
$var wire 2 6! B_in [1:0] $end
$var wire 5 7! C_in [4:0] $end
$var wire 1 8! done_cal_flag $end
$var reg 2 9! A_out [15:14] $end
$var reg 2 :! B_out [13:12] $end
$var reg 5 ;! C_out [34:30] $end
$upscope $end
$scope module genblk1[2].genblk1[2].pe_inst $end
$var wire 1 * clk $end
$var wire 1 <! rst $end
$var wire 2 =! A_in [1:0] $end
$var wire 2 >! B_in [1:0] $end
$var wire 5 ?! C_in [4:0] $end
$var wire 1 @! done_cal_flag $end
$var reg 2 A! A_out [13:12] $end
$var reg 2 B! B_out [11:10] $end
$var reg 5 C! C_out [29:25] $end
$upscope $end
$scope module genblk1[2].genblk1[3].pe_inst $end
$var wire 1 * clk $end
$var wire 1 D! rst $end
$var wire 2 E! A_in [1:0] $end
$var wire 2 F! B_in [1:0] $end
$var wire 5 G! C_in [4:0] $end
$var wire 1 H! done_cal_flag $end
$var reg 2 I! A_out [11:10] $end
$var reg 2 J! B_out [9:8] $end
$var reg 5 K! C_out [24:20] $end
$upscope $end
$scope module genblk1[3].genblk1[0].pe_inst $end
$var wire 1 * clk $end
$var wire 1 L! rst $end
$var wire 2 M! A_in [1:0] $end
$var wire 2 N! B_in [1:0] $end
$var wire 5 O! C_in [4:0] $end
$var wire 1 P! done_cal_flag $end
$var reg 2 Q! A_out [7:6] $end
$var reg 2 R! B_out [7:6] $end
$var reg 5 S! C_out [19:15] $end
$upscope $end
$scope module genblk1[3].genblk1[1].pe_inst $end
$var wire 1 * clk $end
$var wire 1 T! rst $end
$var wire 2 U! A_in [1:0] $end
$var wire 2 V! B_in [1:0] $end
$var wire 5 W! C_in [4:0] $end
$var wire 1 X! done_cal_flag $end
$var reg 2 Y! A_out [5:4] $end
$var reg 2 Z! B_out [5:4] $end
$var reg 5 [! C_out [14:10] $end
$upscope $end
$scope module genblk1[3].genblk1[2].pe_inst $end
$var wire 1 * clk $end
$var wire 1 \! rst $end
$var wire 2 ]! A_in [1:0] $end
$var wire 2 ^! B_in [1:0] $end
$var wire 5 _! C_in [4:0] $end
$var wire 1 `! done_cal_flag $end
$var reg 2 a! A_out [3:2] $end
$var reg 2 b! B_out [3:2] $end
$var reg 5 c! C_out [9:5] $end
$upscope $end
$scope module genblk1[3].genblk1[3].pe_inst $end
$var wire 1 * clk $end
$var wire 1 d! rst $end
$var wire 2 e! A_in [1:0] $end
$var wire 2 f! B_in [1:0] $end
$var wire 5 g! C_in [4:0] $end
$var wire 1 h! done_cal_flag $end
$var reg 2 i! A_out [1:0] $end
$var reg 2 j! B_out [1:0] $end
$var reg 5 k! C_out [4:0] $end
$upscope $end
$upscope $end
$scope module u_ila_0 $end
$var wire 1 * clk $end
$var wire 4 l! probe0 [3:0] $end
$var wire 4 m! probe1 [3:0] $end
$var wire 4 n! probe2 [3:0] $end
$var wire 4 o! probe3 [3:0] $end
$var wire 4 p! probe4 [3:0] $end
$var wire 4 q! probe5 [3:0] $end
$var wire 4 r! probe6 [3:0] $end
$var wire 4 s! probe7 [3:0] $end
$var wire 5 t! probe8 [69:65] $end
$var wire 5 u! probe9 [49:45] $end
$var wire 5 v! probe10 [29:25] $end
$var wire 5 w! probe11 [9:5] $end
$var wire 5 x! probe12 [64:60] $end
$var wire 5 y! probe13 [44:40] $end
$var wire 5 z! probe14 [24:20] $end
$var wire 5 {! probe15 [4:0] $end
$upscope $end
$upscope $end
$scope begin Block53_47 $end
$var reg 32 |! i [31:0] $end
$scope begin Block54_48 $end
$var reg 32 }! j [31:0] $end
$upscope $end
$upscope $end
$scope begin Block62_49 $end
$var reg 32 ~! i [31:0] $end
$scope begin Block63_50 $end
$var reg 32 !" j [31:0] $end
$upscope $end
$upscope $end
$scope begin Block71_51 $end
$var reg 32 "" i [31:0] $end
$scope begin Block72_52 $end
$var reg 32 #" j [31:0] $end
$upscope $end
$upscope $end
$upscope $end
$enddefinitions $end
#0
$dumpvars
0!
b0 !!
b0 !"
1"
b0 "!
b0 ""
1#
b0 #!
b0 #"
1$
1$!
0%
b0 %!
0&
b0 &!
0'
b0 '!
1(
z(!
1)
b0 )!
0*
b0 *!
0+
b0 +!
1,
1,!
0-
b0 -!
1.
b0 .!
0/
b0 /!
b1 0
z0!
b100 1
b0 1!
b100 2
b0 2!
b100 3
b0 3!
b100 4
14!
bx 5
b0 5!
b0 6
b0 6!
b0 7
b0 7!
b0 8
z8!
b0 9
b0 9!
b0 :
b0 :!
b0 ;
b0 ;!
0<
1<!
0=
b0 =!
b0 >
b0 >!
0?
b0 ?!
b100 @
z@!
b101 A
b0 A!
b101 B
b0 B!
b100 C
b0 C!
b100 D
1D!
b100 E
b0 E!
b0 F
b0 F!
b0 G
b0 G!
b0 H
zH!
b0 I
b0 I!
1J
b0 J!
b0 K
b0 K!
b0 L
1L!
b0 M
b0 M!
zN
b0 N!
b0 O
b0 O!
b0 P
zP!
b0 Q
b0 Q!
1R
b0 R!
b0 S
b0 S!
b0 T
1T!
b0 U
b0 U!
zV
b0 V!
b0 W
b0 W!
b0 X
zX!
b0 Y
b0 Y!
1Z
b0 Z!
b0 [
b0 [!
b0 \
1\!
b0 ]
b0 ]!
z^
b0 ^!
b0 _
b0 _!
b0 `
z`!
b0 a
b0 a!
1b
b0 b!
b0 c
b0 c!
b0 d
1d!
b0 e
b0 e!
zf
b0 f!
b0 g
b0 g!
b0 h
zh!
b0 i
b0 i!
1j
b0 j!
b0 k
b0 k!
b0 l
bz00 l!
b0 m
bz00 m!
zn
bz00 n!
b0 o
bz00 o!
b0 p
bz00 p!
b0 q
bz00 q!
1r
bz00 r!
b0 s
bz00 s!
b0 t
b0 t!
b0 u
b0 u!
zv
b0 v!
b0 w
b0 w!
b0 x
b0 x!
b0 y
b0 y!
1z
b0 z!
b0 {
b0 {!
b0 |
b0 |!
b0 }
b0 }!
z~
b0 ~!
$end
#5000
1!
b100 !"
0"
b100 ""
b100 #"
1'
0(
1*
b100 1
b100 2
b100 3
b100 4
b100 @
b101 A
b101 B
b100 C
b100 D
b100 E
b100 |!
b100 }!
b100 ~!
#10000
0!
1"
0'
1(
0*
#15000
1!
b100 !"
0"
b100 ""
b100 #"
1'
0(
1*
b100 1
b100 2
b100 3
b100 4
b100 @
b101 A
b101 B
b100 C
b100 D
b100 E
b100 |!
b100 }!
b100 ~!
#20000
0!
1"
0#
0$!
0'
1(
0)
0*
0,!
04!
0<!
0D!
0J
0L!
0R
0T!
0Z
0\!
0b
0d!
0j
0r
0z
#25000
1!
b100 !"
0"
b100 ""
b100 #"
0$
1%
1'
0(
1*
1+
0,
0.
b100100 0
b100100 5
b100 6
b100 7
b100 8
b100 9
1=
bz11 m!
bz01 n!
bz10 o!
bz01 s!
b100 |!
b100 }!
b100 ~!
#30000
0!
1"
0'
1(
0*
#35000
1!
b100 !"
0"
b0 "!
b100 ""
b100 #"
1'
0(
1*
b0 *!
b0 2!
b0 :!
b1 >
b0 B!
b100 F
b100 G
b0 J!
b10 L
b0 P
b0 R!
b0 X
b0 Z!
b0 `
b0 b!
b0 h
b0 j!
b0 p
b0 x
b100 |!
b100 }!
b100 ~!
#40000
0!
1"
0'
1(
0*
#45000
1!
b0 !!
b100 !"
0"
b0 "!
b100 ""
b100 #"
1'
0(
b0 )!
1*
b0 *!
b0 1!
b0 2!
b0 9!
b0 :!
b10 >
b0 A!
b0 B!
b100 F
b100 G
b0 I!
b0 J!
b0 L
b0 O
b10 P
b0 Q!
b0 R!
b0 W
b0 X
b0 Y!
b0 Z!
b0 _
b0 `
b0 a!
b0 b!
b0 g
b0 h
b0 i!
b0 j!
b11 k
b10 l
b0 o
b0 p
b0 w
b0 x
b100 |!
b100 }!
b100 ~!
#50000
0!
1"
0'
1(
0*
#55000
1!
b0 !!
b100 !"
0"
b0 "!
b100 ""
b100 #"
1'
0(
b0 )!
1*
b0 *!
b1 -!
b10 .!
b0 1!
b0 2!
b0 9!
b0 :!
b11 >
b0 A!
b0 B!
b100 F
b100 G
b0 I!
b0 J!
b1 K
b10 L
b0 O
b0 P
b0 Q!
b0 R!
b0 W
b0 X
b0 Y!
b0 Z!
b0 _
b0 `
b0 a!
b0 b!
b0 g
b0 h
b0 i!
b0 j!
b10 k
b0 l
b11 o
b10 p
b11 s
b0 w
b0 x
b100 |!
b100 }!
b100 ~!
#60000
0!
1"
0'
1(
0*
#65000
1!
b0 !!
b100 !"
0"
b0 "!
b100 ""
b0 #!
b100 #"
1'
0(
b0 )!
1*
b0 *!
b0 +!
b10 -!
b0 .!
b1 1!
b10 2!
b0 3!
b1 5!
b0 9!
b0 :!
b0 ;!
b100 >
b0 A!
b0 B!
b0 C!
b100 F
b100 G
b0 I!
b0 J!
b11 K
b0 K!
b0 L
b10 M!
b10 N!
b1 O
b10 P
b0 Q!
b0 R!
b1 S
b0 S!
b0 W
b0 X
b0 Y!
b0 Z!
b0 [!
b1 \
b0 _
b0 `
b0 a!
b0 b!
b0 c!
b0 g
b0 h
b0 i!
b0 j!
b0 k
b0 k!
b10 l
b110 m
b10 o
b0 p
b110 q
b10 s
b11 w
b0 x
b0 y
b11 {
b100 |!
b100 }!
b100 ~!
#70000
0!
1"
0'
1(
0*
#75000
1!
b11 !!
b100 !"
0"
b0 "!
b100 ""
b0 #!
b100 #"
b11 %!
1'
0(
b0 )!
1*
b0 *!
b0 +!
b0 -!
b10 .!
b10 /!
b10 1!
b0 2!
b10 3!
b10 5!
b1 9!
b0 :!
b0 ;!
b1 =!
b101 >
b0 A!
b0 B!
b0 C!
b100 F
b100 G
b0 I!
b0 J!
b0 K
b0 K!
b10 M
b1 M!
b0 N!
b11 O
b0 P
b10 Q
b10 Q!
b10 R!
b11 S
b0 S!
b1 T
b10 U!
b1 W
b0 X
b0 Y
b0 Y!
b0 Z!
b1 [
b0 [!
b0 _
b1 `
b0 a
b0 a!
b0 b!
b0 c!
b11 d
b0 g
b0 h
b0 i
b0 i!
b0 j!
b0 k!
b0 l
b0 o
b10 p
b110 q
b0 s
b10 w
b0 x
b0 y
b10 {
b1 |
b100 |!
b100 }!
b100 ~!
#80000
0!
1"
0'
1(
0*
#85000
1!
b10 !!
b100 !"
0"
b1 "!
b100 ""
b100 #"
b10 %!
b11 &!
1'
0(
b11 )!
1*
b0 *!
b1 -!
b0 .!
b0 1!
b10 2!
b0 5!
b10 9!
b0 :!
b10 =!
b110 >
b1 >!
b1 A!
b0 B!
b1 E!
b100 F
b100 G
b0 I!
b0 J!
b11 M!
b10 N!
b0 O
b100 O!
b0 P
b1 Q!
b0 R!
b0 S
b100 S!
b0 T
b1 U!
b11 W
b1 X
b10 Y!
b0 Z!
b11 [
b0 [!
b10 \
b10 ]!
b1 _
b1 `
b0 a!
b0 b!
b1 c
b0 c!
b10 d
b0 g
b11 h
b0 i!
b0 j!
b0 k!
b0 o
b0 p
b1 t
b0 w
b0 x
b0 {
b100 |!
b100 }!
b100 ~!
#90000
0!
1"
0'
1(
0*
#95000
1!
b0 !!
b100 !"
0"
b1 "!
b100 ""
b10 #!
b100 #"
b0 %!
b10 &!
1'
0(
b10 )!
1*
b11 *!
b0 +!
b0 -!
b1 1!
b0 2!
b10 3!
b1 5!
b1 6!
b0 9!
b0 :!
b0 ;!
b0 =!
b111 >
b10 A!
b1 B!
b0 C!
b10 E!
b100 F
b11 F!
b100 G
b1 I!
b0 J!
b0 K!
b0 N!
b0 O
b0 P
b11 Q!
b10 R!
b100 S!
b11 U
b11 U!
b0 W
b0 X
b11 Y
b1 Y!
b0 Z!
b0 [
b0 [!
b0 \
b1 ]
b1 ]!
b1 ^!
b11 _
b10 `
b1 a
b10 a!
b0 b!
b11 c
b0 c!
b0 d
b10 e!
b1 g
b10 h
b0 i
b0 i!
b0 j!
b0 k!
b0 o
b0 p
b110 q
b0 t
b0 w
b1 x
b0 y
b10 |
b100 |!
b10 }
b100 }!
b100 ~!
#100000
0!
1"
0'
1(
0*
#105000
1!
b0 !!
b100 !"
0"
b10 "!
b100 ""
b10 #!
b100 #"
b0 &!
1'
b110 '!
0(
b0 )!
1*
b10 *!
b110 +!
b0 1!
b0 2!
b10 3!
b0 5!
b0 6!
b1 9!
b1 :!
b0 ;!
b1 =!
b1000 >
b10 >!
b10 ?!
b0 A!
b1 B!
b10 C!
b0 E!
b100 F
b10 F!
b100 G
b10 I!
b11 J!
b0 K!
b0 M!
b0 O
b1010 O!
b11 Q!
b0 R!
b1010 S!
b1 V!
b0 W
b11 Y!
b0 Z!
b0 [!
b111 ]
b11 ]!
b0 _
b0 `
b111 a
b1 a!
b1 b!
b0 c
b0 c!
b10 e
b1 e!
b11 f!
b11 g
b0 h
b10 i
b10 i!
b0 j!
b0 k!
b0 o
b0 p
b110 q
b0 w
b0 x
b0 y
b0 |
b100 |!
b100 }!
b100 ~!
#110000
0!
1"
0'
1(
0*
#115000
1!
b0 !!
b100 !"
0"
b0 "!
b100 ""
b100 #"
1'
0(
b0 )!
1*
b0 *!
b0 1!
b0 2!
b1 7!
b0 9!
b0 :!
b1 ;!
b0 =!
b1001 >
b0 >!
b1 A!
b10 B!
b10 C!
b1 E!
b100 F
b0 F!
b100 G
b110 G!
b0 I!
b10 J!
b110 K!
b0 Q!
b0 R!
b1010 S!
b0 U!
b0 V!
b11 Y!
b1 Z!
b0 [!
b10 ^!
b1 _!
b11 a!
b1 b!
b1 c!
b11 e!
b10 f!
b0 g
b1 i!
b11 j!
b0 k!
b0 o
b0 w
b100 |!
b100 }!
b100 ~!
#120000
0!
1"
0'
1(
0*
#125000
1!
b100 !"
0"
b100 ""
b100 #"
1'
0(
1*
b1010 >
b100 ?!
b0 A!
b0 B!
b100 C!
b0 E!
b100 F
b100 G
b1 I!
b0 J!
b110 K!
b0 Q!
b0 R!
b1010 S!
b11 W!
b0 Y!
b0 Z!
b11 [!
b0 ]!
b0 ^!
b100 _!
b11 a!
b10 b!
b100 c!
b0 f!
b11 g!
b11 i!
b10 j!
b11 k!
b100 |!
b100 }!
b100 ~!
#130000
0!
1"
0'
1(
0*
#135000
1!
b100 !"
0"
b100 ""
b100 #"
1'
0(
1*
b1011 >
b100 F
b100 G
b0 I!
b0 Q!
b0 Y!
b1010 _!
b0 a!
b0 b!
b1010 c!
b0 e!
b1001 g!
b11 i!
b0 j!
b1001 k!
b100 |!
b100 }!
b100 ~!
#140000
0!
1"
0'
1(
0*
#145000
1!
b100 !"
0"
b100 ""
b100 #"
1'
0(
1*
b1100 >
b100 F
b100 G
b0 i!
b100 |!
b100 }!
b100 ~!
#150000
0!
1"
0'
1(
0*
#155000
1!
b100 !"
0"
b100 ""
b0 #!
b100 #"
1$!
1&
1'
b0 '!
0(
1*
b0 +!
1,!
1-
1/
b0 /!
b0 3!
14!
b0 7!
b0 ;!
1<!
1?
b0 ?!
b0 C!
1D!
b0 G!
b100 H
b100 I
1J
b0 K!
1L!
b0 M
b0 O!
b0 Q
1R
b0 S!
1T!
b0 U
b0 W!
b0 Y
1Z
b0 [!
1\!
b0 ]
b0 _!
b0 a
1b
b0 c!
1d!
b0 e
b0 g!
b0 i
1j
b0 k!
b0 m
b0 q
1r
b111 t!
b10 u!
b100 v!
b1010 w!
b10 x!
b0 y
b110 y!
1z
b110 z!
b1001 {!
b100 |!
b0 }
b100 }!
b100 ~!
#160000
0!
1"
0'
1(
0*
#165000
1!
b100 !"
0"
b100 ""
b100 #"
1$
0$!
0%
0&
1'
0(
1*
0+
1,
0,!
0-
1.
0/
04!
0<!
0=
b0 >
0?
b100 @
b101 A
b101 B
b100 C
b100 D
0D!
b100 E
b100 H
b100 I
0J
0L!
0R
0T!
0Z
0\!
0b
0d!
0j
0r
b0 t!
b0 u!
b0 v!
b0 w!
b0 x!
b0 y!
0z
b0 z!
b0 {!
b100 |!
b100 }!
b100 ~!
#170000
0!
1"
0'
1(
0*
#175000
1!
b100 !"
0"
b100 ""
b100 #"
0$
1%
1'
0(
1*
1+
0,
0.
b100000 0
b100000 5
b100 6
b100 7
b100 8
b100 9
1=
bz11 l!
bz00 m!
bz01 o!
bz01 q!
bz00 s!
b100 |!
b100 }!
b100 ~!
#180000
0!
1"
0'
1(
0*
#185000
1!
b0 !!
b100 !"
0"
b0 "!
b100 ""
b100 #"
1'
0(
b0 )!
1*
b0 *!
b0 1!
b0 2!
b0 9!
b0 :!
b1 >
b0 A!
b0 B!
b100 F
b100 G
b0 I!
b0 J!
b11 K
b10 L
b0 O
b0 P
b0 Q!
b0 R!
b0 W
b0 X
b0 Y!
b0 Z!
b0 _
b0 `
b0 a!
b0 b!
b0 g
b0 h
b0 i!
b0 j!
b0 o
b0 p
b0 w
b0 x
b100 |!
b100 }!
b100 ~!
