Baseline/Baseline.sim/sim_1/behav/xsim/simulate.log
Time resolution is 1 ps
------ Time=5000 ------
gen_array = 1, start_cal = 0, done_cal = 0
Matrix A:
0 0 0 0 
0 0 0 0 
0 0 0 0 
0 0 0 0 
Matrix B:
0 0 0 0 
0 0 0 0 
0 0 0 0 
0 0 0 0 
Matrix C:
 0  0  0  0 
 0  0  0  0 
 0  0  0  0 
 0  0  0  0 
----------------------

------ Time=15000 ------
gen_array = 1, start_cal = 0, done_cal = 0
Matrix A:
0 0 0 0 
0 0 0 0 
0 0 0 0 
0 0 0 0 
Matrix B:
0 0 0 0 
0 0 0 0 
0 0 0 0 
0 0 0 0 
Matrix C:
 0  0  0  0 
 0  0  0  0 
 0  0  0  0 
 0  0  0  0 
----------------------

------ Time=25000 ------
gen_array = 1, start_cal = 0, done_cal = 0
Matrix A:
0 0 0 0 
0 0 0 0 
0 0 0 0 
0 0 0 0 
Matrix B:
0 0 0 0 
0 0 0 0 
0 0 0 0 
0 0 0 0 
Matrix C:
 0  0  0  0 
 0  0  0  0 
 0  0  0  0 
 0  0  0  0 
----------------------

------ Time=35000 ------
gen_array = 0, start_cal = 1, done_cal = 0
Matrix A:
0 0 1 3 
3 2 0 0 
1 2 0 1 
2 1 3 3 
Matrix B:
2 0 0 0 
0 0 1 3 
2 0 1 2 
0 1 2 0 
Matrix C:
 0  0  0  0 
 0  0  0  0 
 0  0  0  0 
 0  0  0  0 
----------------------

------ Time=45000 ------
gen_array = 0, start_cal = 1, done_cal = 0
Matrix A:
0 0 1 3 
3 2 0 0 
1 2 0 1 
2 1 3 3 
Matrix B:
2 0 0 0 
0 0 1 3 
2 0 1 2 
0 1 2 0 
Matrix C:
 0  0  0  0 
 0  0  0  0 
 0  0  0  0 
 0  0  0  0 
----------------------

------ Time=55000 ------
gen_array = 0, start_cal = 1, done_cal = 0
Matrix A:
0 0 1 3 
3 2 0 0 
1 2 0 1 
2 1 3 3 
Matrix B:
2 0 0 0 
0 0 1 3 
2 0 1 2 
0 1 2 0 
Matrix C:
 0  0  0  0 
 0  0  0  0 
 0  0  0  0 
 0  0  0  0 
----------------------

------ Time=65000 ------
gen_array = 0, start_cal = 1, done_cal = 0
Matrix A:
0 0 1 3 
3 2 0 0 
1 2 0 1 
2 1 3 3 
Matrix B:
2 0 0 0 
0 0 1 3 
2 0 1 2 
0 1 2 0 
Matrix C:
 0  0  0  0 
 0  0  0  0 
 0  0  0  0 
 0  0  0  0 
----------------------

------ Time=75000 ------
gen_array = 0, start_cal = 1, done_cal = 0
Matrix A:
0 0 1 3 
3 2 0 0 
1 2 0 1 
2 1 3 3 
Matrix B:
2 0 0 0 
0 0 1 3 
2 0 1 2 
0 1 2 0 
Matrix C:
 0  0  0  0 
 0  0  0  0 
 0  0  0  0 
 0  0  0  0 
----------------------

------ Time=85000 ------
gen_array = 0, start_cal = 1, done_cal = 0
Matrix A:
0 0 1 3 
3 2 0 0 
1 2 0 1 
2 1 3 3 
Matrix B:
2 0 0 0 
0 0 1 3 
2 0 1 2 
0 1 2 0 
Matrix C:
 0  0  0  0 
 0  0  0  0 
 0  0  0  0 
 0  0  0  0 
----------------------

------ Time=95000 ------
gen_array = 0, start_cal = 1, done_cal = 0
Matrix A:
0 0 1 3 
3 2 0 0 
1 2 0 1 
2 1 3 3 
Matrix B:
2 0 0 0 
0 0 1 3 
2 0 1 2 
0 1 2 0 
Matrix C:
 0  0  0  0 
 0  0  0  0 
 0  0  0  0 
 0  0  0  0 
----------------------

------ Time=105000 ------
gen_array = 0, start_cal = 1, done_cal = 0
Matrix A:
0 0 1 3 
3 2 0 0 
1 2 0 1 
2 1 3 3 
Matrix B:
2 0 0 0 
0 0 1 3 
2 0 1 2 
0 1 2 0 
Matrix C:
 0  0  0  0 
 0  0  0  0 
 0  0  0  0 
 0  0  0  0 
----------------------

------ Time=115000 ------
gen_array = 0, start_cal = 1, done_cal = 0
Matrix A:
0 0 1 3 
3 2 0 0 
1 2 0 1 
2 1 3 3 
Matrix B:
2 0 0 0 
0 0 1 3 
2 0 1 2 
0 1 2 0 
Matrix C:
 0  0  0  0 
 0  0  0  0 
 0  0  0  0 
 0  0  0  0 
----------------------

------ Time=125000 ------
gen_array = 0, start_cal = 1, done_cal = 0
Matrix A:
0 0 1 3 
3 2 0 0 
1 2 0 1 
2 1 3 3 
Matrix B:
2 0 0 0 
0 0 1 3 
2 0 1 2 
0 1 2 0 
Matrix C:
 0  0  0  0 
 0  0  0  0 
 0  0  0  0 
 0  0  0  0 
----------------------

------ Time=135000 ------
gen_array = 0, start_cal = 1, done_cal = 0
Matrix A:
0 0 1 3 
3 2 0 0 
1 2 0 1 
2 1 3 3 
Matrix B:
2 0 0 0 
0 0 1 3 
2 0 1 2 
0 1 2 0 
Matrix C:
 0  0  0  0 
 0  0  0  0 
 0  0  0  0 
 0  0  0  0 
----------------------

------ Time=145000 ------
gen_array = 0, start_cal = 1, done_cal = 0
Matrix A:
0 0 1 3 
3 2 0 0 
1 2 0 1 
2 1 3 3 
Matrix B:
2 0 0 0 
0 0 1 3 
2 0 1 2 
0 1 2 0 
Matrix C:
 0  0  0  0 
 0  0  0  0 
 0  0  0  0 
 0  0  0  0 
----------------------

------ Time=155000 ------
gen_array = 0, start_cal = 1, done_cal = 0
Matrix A:
0 0 1 3 
3 2 0 0 
1 2 0 1 
2 1 3 3 
Matrix B:
2 0 0 0 
0 0 1 3 
2 0 1 2 
0 1 2 0 
Matrix C:
 0  0  0  0 
 0  0  0  0 
 0  0  0  0 
 0  0  0  0 
----------------------

------ Time=165000 ------
gen_array = 0, start_cal = 1, done_cal = 1
Matrix A:
0 0 1 3 
3 2 0 0 
1 2 0 1 
2 1 3 3 
Matrix B:
2 0 0 0 
0 0 1 3 
2 0 1 2 
0 1 2 0 
Matrix C:
 2  3  7  2 
 6  0  2  6 
 2  1  4  6 
10  3 10  9 
----------------------

------ Time=175000 ------
gen_array = 1, start_cal = 0, done_cal = 0
Matrix A:
0 0 1 3 
3 2 0 0 
1 2 0 1 
2 1 3 3 
Matrix B:
2 0 0 0 
0 0 1 3 
2 0 1 2 
0 1 2 0 
Matrix C:
 0  0  0  0 
 0  0  0  0 
 0  0  0  0 
 0  0  0  0 
----------------------

------ Time=185000 ------
gen_array = 0, start_cal = 1, done_cal = 0
Matrix A:
3 3 2 0 
0 0 0 0 
1 3 2 0 
1 2 0 1 
Matrix B:
2 0 1 3 
2 1 3 3 
2 0 1 2 
0 0 0 0 
Matrix C:
 0  0  0  0 
 0  0  0  0 
 0  0  0  0 
 0  0  0  0 
----------------------

